{
  "project_info": {
    "project_number": "213596919179",
    "firebase_url": "https://hiref-5c487.firebaseio.com",
    "project_id": "hiref-5c487",
    "storage_bucket": "hiref-5c487.appspot.com"
  },
  "client": [
    {
      "client_info": {
        "mobilesdk_app_id": "1:213596919179:android:55a6c7096db07df0580b8e",
        "android_client_info": {
          "package_name": "com.hiref_app"
        }
      },
      "oauth_client": [
        {
          "client_id": "213596919179-eqvc2ahge863npasdovlssm0t5esc4vp.apps.googleusercontent.com",
          "client_type": 3
        }
      ],
      "api_key": [
        {
          "current_key": "AIzaSyBLDbNMl_CRI8enD15KCzKWAseLNNnmUYo"
        }
      ],
      "services": {
        "appinvite_service": {
          "other_platform_oauth_client": [
            {
              "client_id": "213596919179-eqvc2ahge863npasdovlssm0t5esc4vp.apps.googleusercontent.com",
              "client_type": 3
            }
          ]
        }
      }
    }
  ],
  "configuration_version": "1"
}